{
  "products": [
    {
      "id": 1,
      "name": "Nike Daco Black",
      "stocks": 2,
      "price": "450.000",
      "category": "Sneakers",
      "Brand": "Nike",
      "images": "https://i.ibb.co/VmMb2Pp/daco-black.png",
      "specs": [
        {
          "spec": "Foam sole with rubber sidewalls"
        },
        {
          "spec": "Rubber traction"
        },
        {
          "spec": "Sockliner"
        },
        {
          "spec": "Colour Shown: Black/Hot Punch/Green Glow/Court Purple"
        },
        {
          "spec": "Style: CT0978-005"
        },
        {
          "spec": "Country/Region of Origin: China"
        }
      ],
      "size": [
        {
          "numbe": 42
        },
        {"numbe": 44
        }
      ]
    },
    {
      "id": 2,
      "name": "Nike Daco White",
      "stocks": 3,
      "price": "550.000",
      "category": "Sneakers",
      "Brand": "Nike",
      "images": "https://i.ibb.co/XFf53pM/daco-white.png",
      "specs": [
        {
          "spec": "Foam sole with rubber sidewalls"
        },
        {
          "spec": "Rubber traction"
        },
        {
          "spec": "Sockliner"
        },
        {
          "spec": "Colour Shown: Black/Hot Punch/Green Glow/Court Purple"
        },
        {
          "spec": "Style: CT0978-005"
        },
        {
          "spec": "Country/Region of Origin: China"
        }
      ],
      "size": [
        {
        "numbe": 42
        },
        {"numbe": 44
        },
        {"numbe": 43
        }
      ]
    },
    {
      "id": 3,
      "name": "Nike running clothing",
      "stocks": 1,
      "price": "650.000",
      "category": "Sport",
      "Brand": "Nike",
      "images": "https://i.ibb.co/y0YnDYx/shoe-running-sneakers-clothing-nike.png",
      "specs": [
        {
          "spec": "Foam sole with rubber sidewalls"
        },
        {
          "spec": "Rubber traction"
        },
        {
          "spec": "Sockliner"
        },
        {
          "spec": "Colour Shown: Black/Hot Punch/Green Glow/Court Purple"
        },
        {
          "spec": "Style: CT0978-005"
        },
        {
          "spec": "Country/Region of Origin: China"
        }
      ],
      "size": [
        {
          "numbe": 42
        }
      ]
    },
    {
      "id": 4,
      "name": "Puma Grey",
      "stocks": 5,
      "price": "450.000",
      "category": "Casual",
      "Brand": "Puma",
      "images": "https://i.ibb.co/WfLJDc1/Daco-4594757.png",
      "specs": [
        {
          "spec": "Foam sole with rubber sidewalls"
        },
        {
          "spec": "Rubber traction"
        },
        {
          "spec": "Sockliner"
        },
        {
          "spec": "Colour Shown: Black/Hot Punch/Green Glow/Court Purple"
        },
        {
          "spec": "Style: CT0978-005"
        },
        {
          "spec": "Country/Region of Origin: China"
        }
      ],
      "size": [
        {
          "numbe": 42
        },
        {
          "numbe": 38
        },
        {
          "numbe": 40
        }
      ]
    },
    {
      "id": 5,
      "name": "Nike running",
      "stocks": 1,
      "price": "650.000",
      "category": "Sport",
      "Brand": "Nike",
      "images": "https://i.ibb.co/y0YnDYx/shoe-running-sneakers-clothing-nike.png",
      "specs": [
        {
          "spec": "Foam sole with rubber sidewalls"
        },
        {
          "spec": "Rubber traction"
        },
        {
          "spec": "Sockliner"
        },
        {
          "spec": "Colour Shown: Black/Hot Punch/Green Glow/Court Purple"
        },
        {
          "spec": "Style: CT0978-005"
        },
        {
          "spec": "Country/Region of Origin: China"
        }
      ],
      "size": [
        {
          "numbe": 42
        }
      ]
    },
    {
      "id": 6,
      "name": "Adidas Sneaker",
      "stocks": 3,
      "price": "650.000",
      "category": "Sneakers",
      "Brand": "Adidas",
      "images": "https://i.ibb.co/cCxhmmD/FAVPNG-asics-shoe-running-sneakers-footwear-1a-Pvvvq-C.png",
      "specs": [
        {
          "spec": "Foam sole with rubber sidewalls"
        },
        {
          "spec": "Rubber traction"
        },
        {
          "spec": "Sockliner"
        },
        {
          "spec": "Colour Shown: Black/Hot Punch/Green Glow/Court Purple"
        },
        {
          "spec": "Style: CT0978-005"
        },
        {
          "spec": "Country/Region of Origin: China"
        }
      ],
      "size": [
        {
          "numbe": 42
        },
        {
          "numbe": 38
        }
      ]
    },
    {
      "id": 7,
      "name": "Nike boom sky",
      "stocks": 1,
      "price": "650.000",
      "category": "Sport",
      "Brand": "Nike",
      "images": "https://i.ibb.co/YBdxB77/Daco-1703366.png",
      "specs": [
        {
          "spec": "Foam sole with rubber sidewalls"
        },
        {
          "spec": "Rubber traction"
        },
        {
          "spec": "Sockliner"
        },
        {
          "spec": "Colour Shown: Black/Hot Punch/Green Glow/Court Purple"
        },
        {
          "spec": "Style: CT0978-005"
        },
        {
          "spec": "Country/Region of Origin: China"
        }
      ],
      "size": [
        {
          "numbe": 42
        }
      ]
    },
    {
      "id": 8,
      "name": "Puma Soocer",
      "stocks": 6,
      "price": "750.000",
      "category": "Sport",
      "Brand": "Puma",
      "images": "https://i.ibb.co/Ph5FkRC/Daco-4970111.png",
      "specs": [
        {
          "spec": "Foam sole with rubber sidewalls"
        },
        {
          "spec": "Rubber traction"
        },
        {
          "spec": "Sockliner"
        },
        {
          "spec": "Colour Shown: Black/Hot Punch/Green Glow/Court Purple"
        },
        {
          "spec": "Style: CT0978-005"
        },
        {
          "spec": "Country/Region of Origin: China"
        }
      ],
        "size": [
          {
            "numbe": 42
          },
          {
            "numbe": 41
          },
          {
            "numbe": 43
          },
          {
            "numbe": 38
          }
        ]
    }
  ]
}
